{"photos":{"page":1,"pages":30431,"perpage":10,"total":"304308","photo":[{"id":"25022686397","owner":"159014914@N07","secret":"bb2aaf2445","server":"4664","farm":5,"title":"make money writing a cookbook","ispublic":1,"isfriend":0,"isfamily":0},{"id":"39894642801","owner":"155874363@N06","secret":"ac4746fa98","server":"4723","farm":5,"title":"make money writing a cookbook","ispublic":1,"isfriend":0,"isfamily":0},{"id":"39183759544","owner":"142437002@N08","secret":"35495393b7","server":"4629","farm":5,"title":"make money writing a cookbook","ispublic":1,"isfriend":0,"isfamily":0},{"id":"25022672917","owner":"138050459@N06","secret":"637dab1041","server":"4710","farm":5,"title":"make money writing a cookbook","ispublic":1,"isfriend":0,"isfamily":0},{"id":"39894631751","owner":"138037116@N04","secret":"3521f55800","server":"4751","farm":5,"title":"make money writing a cookbook","ispublic":1,"isfriend":0,"isfamily":0},{"id":"39183752294","owner":"139625346@N02","secret":"63352f8bcb","server":"4616","farm":5,"title":"make money writing a cookbook","ispublic":1,"isfriend":0,"isfamily":0},{"id":"39894622441","owner":"154930412@N05","secret":"a0c4763aa4","server":"4655","farm":5,"title":"make money writing a cookbook","ispublic":1,"isfriend":0,"isfamily":0},{"id":"25022663127","owner":"154947976@N03","secret":"02c0e8a4d0","server":"4701","farm":5,"title":"make money writing a cookbook","ispublic":1,"isfriend":0,"isfamily":0},{"id":"38994861245","owner":"158808834@N05","secret":"45fec24402","server":"4656","farm":5,"title":"make money writing a cookbook","ispublic":1,"isfriend":0,"isfamily":0},{"id":"25022635617","owner":"137938670@N08","secret":"a5a841ffa6","server":"4702","farm":5,"title":"Adana’da trafik kazası: 1 ölü, 1 yaralı #adanahaber #adana https://t.co/w3wYHok5Zz","ispublic":1,"isfriend":0,"isfamily":0}]},"stat":"ok"}